…
<img src="man/figures/README-unnamed-chunk-6-1.png" width="100%" />

And if we want to see the PCA plot:

``` r
rescience:::plot_pca(ms, color_labels = "group")
#> $values
#> # A tibble: 404 × 1,957
#>    M363T419 M512T603 M364T419 M365T392 M186T177 M366T392 M512T529 M185T177_1
#>       <dbl>    <dbl>    <dbl>    <dbl>    <dbl>    <dbl>    <dbl>      <dbl>
#>  1    15.3      11.2     9.98    16.6      20.4    11.6      6.14       35.0
#>  2    12.9      13.9    10.3     17.6      18.8    12.0      9.57       32.0
#>  3     9.66     16.3     7.54     8.91     13.6     6.54    15.2        22.9
#>  4    13.4      17.8     9.29     9.48     17.3     8.22    14.7        30.5
#>  5    14.4      14.3    10.5     10.5      13.7     7.85    10.6        24.1
#>  6    14.6      15.9    10.2     11.2      12.3    10.1     10.7        21.3
#>  7    14.7      13.0    10.5     12.8      17.4     9.18     4.68       30.8
#>  8    13.5      14.8     9.52    12.4      17.2     8.67    15.7        29.8
#>  9    14.7      14.6     9.96     9.96     16.6     9.53    12.3        28.9
#> 10    16.0      16.4    11.2     14.6      15.7    10.1     15.3        28.1
#> # … with 394 more rows, and 1,949 more variables: M534T603 <dbl>,
#> #   M143T177 <dbl>, M125T177 <dbl>, M185T177_2 <dbl>, M207T177 <dbl>,
#> #   M126T177 <dbl>, M483T612 <dbl>, M482T612 <dbl>, M994T628 <dbl>,
#> #   M484T613 <dbl>, M86T124 <dbl>, M126T59 <dbl>, M558T617 <dbl>,
#> #   M127T177 <dbl>, M993T628 <dbl>, M128T125 <dbl>, M992T628 <dbl>,
#> #   M146T93 <dbl>, M330T231 <dbl>, M521T616 <dbl>, M559T617 <dbl>,
#> #   M318T215 <dbl>, M146T125 <dbl>, M151T128 <dbl>, M188T137 <dbl>, …
#> 
#> $rowinfo
#> # A tibble: 404 × 7
#>       id group     age gender weight height   BMI
#>    <dbl> <chr>   <dbl> <chr>   <dbl>  <dbl> <dbl>
#>  1     1 control    87 K          74    176  23.9
#>  2     2 control    48 K          52     NA  NA  
#>  3     3 control    53 M          80    178  25.2
#>  4     4 control    27 M          67    171  22.9
#>  5     5 control    27 M          81    180  25  
#>  6     6 control    49 M          NA    150  NA  
#>  7     7 control    27 M          79    183  23.6
#>  8     8 control    23 M          97    170  33.6
#>  9     9 control    31 K          66    170  22.8
#> 10    10 control    18 M          75    174  24.8
#> # … with 394 more rows
```
…
